Christmas Carol analysis
…
## Joining, by = "word"

cc_words

## # A tibble: 3,847 x 2
##    word          n
##    <chr>     <int>
##  1 scrooge     316
##  2 ghost        89
##  3 christmas    86
##  4 spirit       84
##  5 time         68
##  6 cried        52
##  7 bob          49
##  8 scrooge's    48
##  9 door         45
## 10 hand         43
## # ... with 3,837 more rows
…
